{
  "base_url": "/user/yasmineutt-tp-mt15-2021-r7ekcksg/",
  "hostname": "0.0.0.0",
  "notebook_dir": "/home/jovyan",
  "password": false,
  "pid": 18,
  "port": 8888,
  "secure": false,
  "sock": "",
  "token": "4BESNuaERyOcWjtzYOoHoQ",
  "url": "http://0.0.0.0:8888/user/yasmineutt-tp-mt15-2021-r7ekcksg/"
}